{
    "photos": {
        "page": 1,
        "pages": 32719,
        "perpage": 10,
        "total": "327183",
        "photo": [
            {
                "id": "50088736853",
                "owner": "184609343@N05",
                "secret": "b3e1bed421",
                "server": "65535",
                "farm": 66,
                "title": "Hero - There is Right and there is Wrong... Its easy to see the Difference. #DeanCain #Superman #ElTechOArt #SSP #Art #Photoshop #PhotoshopEdit #photooftheday https://ift.tt/2Za09GM",
                "ispublic": 1,
                "isfriend": 0,
                "isfamily": 0
            },
            {
                "id": "50087921043",
                "owner": "145467007@N06",
                "secret": "9ca53b92a9",
                "server": "65535",
                "farm": 66,
                "title": "Hello Stranger",
                "ispublic": 1,
                "isfriend": 0,
                "isfamily": 0
            },
            {
                "id": "50088329556",
                "owner": "183451641@N04",
                "secret": "51ecb1317b",
                "server": "65535",
                "farm": 66,
                "title": "Kal El, Bruce Wayne and Damien Wayne",
                "ispublic": 1,
                "isfriend": 0,
                "isfamily": 0
            },
            {
                "id": "50088122476",
                "owner": "137866723@N05",
                "secret": "fe2d0386a4",
                "server": "65535",
                "farm": 66,
                "title": "Nubuck Bleu 20x18mm et Superman 550016",
                "ispublic": 1,
                "isfriend": 0,
                "isfamily": 0
            },
            {
                "id": "50088121861",
                "owner": "137866723@N05",
                "secret": "66f015f4aa",
                "server": "65535",
                "farm": 66,
                "title": "Superman 550016 monté sur Nubuck bleu 20x18mm",
                "ispublic": 1,
                "isfriend": 0,
                "isfamily": 0
            },
            {
                "id": "50087568336",
                "owner": "95807136@N00",
                "secret": "b3edcc3cac",
                "server": "65535",
                "farm": 66,
                "title": "Kryptic Klue 27/52",
                "ispublic": 1,
                "isfriend": 0,
                "isfamily": 0
            },
            {
                "id": "50087148122",
                "owner": "22877494@N02",
                "secret": "8c68191a75",
                "server": "65535",
                "farm": 66,
                "title": "DSC_1924",
                "ispublic": 1,
                "isfriend": 0,
                "isfamily": 0
            },
            {
                "id": "50086331158",
                "owner": "22877494@N02",
                "secret": "7b2fb000d7",
                "server": "65535",
                "farm": 66,
                "title": "DSC_2046",
                "ispublic": 1,
                "isfriend": 0,
                "isfamily": 0
            },
            {
                "id": "50086915956",
                "owner": "22877494@N02",
                "secret": "ed4a1f2aa8",
                "server": "65535",
                "farm": 66,
                "title": "DSC_1925",
                "ispublic": 1,
                "isfriend": 0,
                "isfamily": 0
            },
            {
                "id": "50087147987",
                "owner": "22877494@N02",
                "secret": "37429373b6",
                "server": "65535",
                "farm": 66,
                "title": "DSC_2055",
                "ispublic": 1,
                "isfriend": 0,
                "isfamily": 0
            }
        ]
    },
    "stat": "ok"
}
